%YAML 1.1
%TAG !u! tag:unity3d.com,2011:
--- !u!114 &11400000
MonoBehaviour:
  m_ObjectHideFlags: 0
  m_CorrespondingSourceObject: {fileID: 0}
  m_PrefabInternal: {fileID: 0}
  m_GameObject: {fileID: 0}
  m_Enabled: 1
  m_EditorHideFlags: 0
  m_Script: {fileID: 11500000, guid: 5c9b07d2f73d4c74c9e61abaee24acf0, type: 3}
  m_Name: L
  m_EditorClassIdentifier: 
  blockPrefab: {fileID: 1951373037246678, guid: e326ff101fa88b949b737536b801b221,
    type: 2}
  blockUIPrefab: {fileID: 1268150464866936, guid: 17f8d4a1bb08e794c863027874379c7a,
    type: 2}
